<?xml version="1.0" encoding="UTF-8" standalone="no"?>
<!-- Created with Inkscape (http://www.inkscape.org/) -->

<svg
   xmlns:dc="http://purl.org/dc/elements/1.1/"
   xmlns:cc="http://creativecommons.org/ns#"
   xmlns:rdf="http://www.w3.org/1999/02/22-rdf-syntax-ns#"
   xmlns:svg="http://www.w3.org/2000/svg"
   xmlns="http://www.w3.org/2000/svg"
   xmlns:sodipodi="http://sodipodi.sourceforge.net/DTD/sodipodi-0.dtd"
   xmlns:inkscape="http://www.inkscape.org/namespaces/inkscape"
   width="184.81706mm"
   height="160.18384mm"
   viewBox="0 0 184.81706 160.18384"
   version="1.1"
   id="svg8"
   inkscape:version="0.92.1 r15371"
   sodipodi:docname="kisdi_structure.svg">
  <defs
     id="defs2" />
  <sodipodi:namedview
     id="base"
     pagecolor="#ffffff"
     bordercolor="#666666"
     borderopacity="1.0"
     inkscape:pageopacity="0.0"
     inkscape:pageshadow="2"
     inkscape:zoom="0.98994949"
     inkscape:cx="222.01716"
     inkscape:cy="239.03503"
     inkscape:document-units="mm"
     inkscape:current-layer="g4541-4"
     showgrid="false"
     showguides="false"
     fit-margin-top="0"
     fit-margin-left="0"
     fit-margin-right="0"
     fit-margin-bottom="0"
     inkscape:window-width="1920"
     inkscape:window-height="1063"
     inkscape:window-x="0"
     inkscape:window-y="17"
     inkscape:window-maximized="1" />
  <metadata
     id="metadata5">
    <rdf:RDF>
      <cc:Work
         rdf:about="">
        <dc:format>image/svg+xml</dc:format>
        <dc:type
           rdf:resource="http://purl.org/dc/dcmitype/StillImage" />
        <dc:title></dc:title>
      </cc:Work>
    </rdf:RDF>
  </metadata>
  <g
     inkscape:label="Layer 1"
     inkscape:groupmode="layer"
     id="layer1"
     transform="translate(-16.202929,-12.323052)">
    <path
       style="opacity:1;vector-effect:none;fill:none;fill-opacity:1;stroke:#800066;stroke-width:2.42452598;stroke-linecap:round;stroke-linejoin:miter;stroke-miterlimit:4;stroke-dasharray:none;stroke-dashoffset:0;stroke-opacity:1"
       d="M 17.415192,36.602688 H 56.885417 V 13.535315 h 69.333593 v 23.067373 h 73.58872 V 171.29463 H 17.415192 Z"
       id="rect4485"
       inkscape:connector-curvature="0"
       sodipodi:nodetypes="ccccccccc" />
    <text
       xml:space="preserve"
       style="font-style:normal;font-weight:normal;font-size:10.58333302px;line-height:23.28333282px;font-family:Sans;letter-spacing:0px;word-spacing:0px;fill:#800066;fill-opacity:1;stroke:none;stroke-width:0.26458332px;stroke-linecap:butt;stroke-linejoin:miter;stroke-opacity:1"
       x="15.874999"
       y="35.251484"
       id="text4489"><tspan
         sodipodi:role="line"
         id="tspan4487"
         x="15.874999"
         y="35.251484"
         style="fill:#800066;fill-opacity:1;stroke-width:0.26458332px">model</tspan></text>
    <text
       xml:space="preserve"
       style="font-style:normal;font-weight:normal;font-size:6.00786066px;font-family:Sans;letter-spacing:0px;word-spacing:0px;fill:#000000;fill-opacity:1;stroke:none;stroke-width:0.15019651px;stroke-linecap:butt;stroke-linejoin:miter;stroke-opacity:1"
       x="90.159393"
       y="55.209724"
       id="text4493"><tspan
         sodipodi:role="line"
         id="tspan4491"
         x="90.159393"
         y="55.209724"
         style="font-style:normal;font-variant:normal;font-weight:normal;font-stretch:normal;font-family:monospace;-inkscape-font-specification:monospace;stroke-width:0.15019651px"><tspan
   style="font-style:normal;font-variant:normal;font-weight:bold;font-stretch:normal;font-family:monospace;-inkscape-font-specification:'monospace Bold';stroke-width:0.15019651px"
   id="tspan4497">defgroup</tspan> niche(1)</tspan><tspan
         sodipodi:role="line"
         x="90.159393"
         y="62.719551"
         style="font-style:normal;font-variant:normal;font-weight:normal;font-stretch:normal;font-family:monospace;-inkscape-font-specification:monospace;stroke-width:0.15019651px"
         id="tspan4495"><tspan
   style="font-style:normal;font-variant:normal;font-weight:bold;font-stretch:normal;font-family:monospace;-inkscape-font-specification:'monospace Bold';stroke-width:0.15019651px"
   id="tspan4499">rel</tspan> ecology</tspan></text>
    <g
       id="g4541"
       transform="translate(-0.18898697)">
      <rect
         y="48.017582"
         x="20.401209"
         height="17.783888"
         width="59.172279"
         id="rect4501"
         style="opacity:1;vector-effect:none;fill:none;fill-opacity:1;stroke:#aa0044;stroke-width:1.2150178;stroke-linecap:round;stroke-linejoin:miter;stroke-miterlimit:4;stroke-dasharray:none;stroke-dashoffset:0;stroke-opacity:1" />
      <text
         id="text4505"
         y="46.628571"
         x="20.599701"
         style="font-style:normal;font-weight:normal;font-size:10.58333302px;line-height:23.28333282px;font-family:Sans;letter-spacing:0px;word-spacing:0px;fill:#aa0044;fill-opacity:1;stroke:none;stroke-width:0.26458332px;stroke-linecap:butt;stroke-linejoin:miter;stroke-opacity:1"
         xml:space="preserve"><tspan
           style="fill:#aa0044;fill-opacity:1;stroke-width:0.26458332px"
           y="46.628571"
           x="20.599701"
           id="tspan4503"
           sodipodi:role="line">relation</tspan></text>
      <text
         id="text4493-0"
         y="55.225861"
         x="22.144514"
         style="font-style:normal;font-weight:normal;font-size:6.00786066px;font-family:Sans;letter-spacing:0px;word-spacing:0px;fill:#000000;fill-opacity:1;stroke:none;stroke-width:0.15019651px;stroke-linecap:butt;stroke-linejoin:miter;stroke-opacity:1"
         xml:space="preserve"><tspan
           style="font-style:normal;font-variant:normal;font-weight:normal;font-stretch:normal;font-family:monospace;-inkscape-font-specification:monospace;stroke-width:0.15019651px"
           y="55.225861"
           x="22.144514"
           id="tspan4491-9"
           sodipodi:role="line"><tspan
   id="tspan4497-1"
   style="font-style:normal;font-variant:normal;font-weight:bold;font-stretch:normal;font-family:monospace;-inkscape-font-specification:'monospace Bold';stroke-width:0.15019651px">defrel</tspan> rel1</tspan><tspan
           id="tspan4495-2"
           style="font-style:normal;font-variant:normal;font-weight:normal;font-stretch:normal;font-family:monospace;-inkscape-font-specification:monospace;stroke-width:0.15019651px"
           y="62.735687"
           x="22.144514"
           sodipodi:role="line">ntot = ntotgrp</tspan></text>
    </g>
    <path
       style="opacity:1;vector-effect:none;fill:none;fill-opacity:1;stroke:#0055d4;stroke-width:1.61199999;stroke-linecap:round;stroke-linejoin:miter;stroke-miterlimit:4;stroke-dasharray:none;stroke-dashoffset:0;stroke-opacity:1"
       d="M 20.410713,69.647324 H 85.422619 V 45.986014 H 196.81219 V 167.95893 H 20.410713 Z"
       id="rect4579"
       inkscape:connector-curvature="0"
       sodipodi:nodetypes="ccccccc" />
    <text
       xml:space="preserve"
       style="font-style:normal;font-weight:normal;font-size:10.58333302px;line-height:23.28333282px;font-family:Sans;letter-spacing:0px;word-spacing:0px;fill:#0055d4;fill-opacity:1;stroke:none;stroke-width:0.26458332px;stroke-linecap:butt;stroke-linejoin:miter;stroke-opacity:1"
       x="84.628868"
       y="43.529163"
       id="text4584"><tspan
         sodipodi:role="line"
         id="tspan4582"
         x="84.628868"
         y="43.529163"
         style="fill:#0055d4;fill-opacity:1;stroke-width:0.26458332px">group</tspan></text>
    <text
       xml:space="preserve"
       style="font-style:normal;font-weight:normal;font-size:6.00786066px;font-family:Sans;letter-spacing:0px;word-spacing:0px;fill:#000000;fill-opacity:1;stroke:none;stroke-width:0.15019651px;stroke-linecap:butt;stroke-linejoin:miter;stroke-opacity:1"
       x="60.887074"
       y="23.719952"
       id="text4493-6"><tspan
         sodipodi:role="line"
         id="tspan4491-7"
         x="60.887074"
         y="23.719952"
         style="font-style:normal;font-variant:normal;font-weight:normal;font-stretch:normal;font-family:monospace;-inkscape-font-specification:monospace;stroke-width:0.15019651px"><tspan
   style="font-style:normal;font-variant:normal;font-weight:bold;font-stretch:normal;font-family:monospace;-inkscape-font-specification:'monospace Bold';stroke-width:0.15019651px"
   id="tspan4497-7">defmod</tspan> kisdi(1)</tspan><tspan
         sodipodi:role="line"
         x="60.887074"
         y="31.229778"
         style="font-style:normal;font-variant:normal;font-weight:normal;font-stretch:normal;font-family:monospace;-inkscape-font-specification:monospace;stroke-width:0.15019651px"
         id="tspan4495-0"><tspan
   style="font-style:normal;font-variant:normal;font-weight:bold;font-stretch:normal;font-family:monospace;-inkscape-font-specification:'monospace Bold';stroke-width:0.15019651px"
   id="tspan4499-9">rel</tspan> rel1</tspan></text>
    <g
       transform="translate(3.401791,34.233497)"
       id="g4541-4">
      <rect
         y="46.959248"
         x="20.401209"
         height="19.484776"
         width="100.56067"
         id="rect4501-5"
         style="opacity:1;vector-effect:none;fill:none;fill-opacity:1;stroke:#aa0044;stroke-width:1.2150178;stroke-linecap:round;stroke-linejoin:miter;stroke-miterlimit:4;stroke-dasharray:none;stroke-dashoffset:0;stroke-opacity:1" />
      <text
         id="text4505-4"
         y="45.570236"
         x="20.599701"
         style="font-style:normal;font-weight:normal;font-size:10.58333302px;line-height:23.28333282px;font-family:Sans;letter-spacing:0px;word-spacing:0px;fill:#aa0044;fill-opacity:1;stroke:none;stroke-width:0.26458332px;stroke-linecap:butt;stroke-linejoin:miter;stroke-opacity:1"
         xml:space="preserve"><tspan
           style="fill:#aa0044;fill-opacity:1;stroke-width:0.26458332px"
           y="45.570236"
           x="20.599701"
           id="tspan4503-2"
           sodipodi:role="line">relation</tspan></text>
      <text
         id="text4493-0-2"
         y="53.958046"
         x="22.144514"
         style="font-style:normal;font-weight:normal;font-size:6.00786066px;font-family:Sans;letter-spacing:0px;word-spacing:0px;fill:#000000;fill-opacity:1;stroke:none;stroke-width:0.15019651px;stroke-linecap:butt;stroke-linejoin:miter;stroke-opacity:1"
         xml:space="preserve"><tspan
           style="font-style:normal;font-variant:normal;font-weight:normal;font-stretch:normal;font-family:monospace;-inkscape-font-specification:monospace;stroke-width:0.15019651px"
           y="53.958046"
           x="22.144514"
           id="tspan4491-9-3"
           sodipodi:role="line"><tspan
   id="tspan4497-1-9"
   style="font-style:normal;font-variant:normal;font-weight:bold;font-stretch:normal;font-family:monospace;-inkscape-font-specification:'monospace Bold';stroke-width:0.15019651px">defrel</tspan> ecology</tspan><tspan
           id="tspan4495-2-6"
           style="font-style:normal;font-variant:normal;font-weight:normal;font-stretch:normal;font-family:monospace;-inkscape-font-specification:monospace;stroke-width:0.15019651px"
           y="61.467873"
           x="22.144514"
           sodipodi:role="line">ntot = poissonf(n,exp(b-d))</tspan></text>
    </g>
    <g
       transform="translate(5.8586353,70.235732)"
       id="g4541-4-3">
      <path
         style="opacity:1;vector-effect:none;fill:none;fill-opacity:1;stroke:#00aad4;stroke-width:1.2150178;stroke-linecap:round;stroke-linejoin:miter;stroke-miterlimit:4;stroke-dasharray:none;stroke-dashoffset:0;stroke-opacity:1"
         d="M 17.944365,39.966686 188.8369,40.495853 V 94.434806 L 17.944365,93.905639 Z"
         id="rect4501-5-9"
         inkscape:connector-curvature="0"
         sodipodi:nodetypes="ccccc" />
      <text
         id="text4505-4-4"
         y="39.636009"
         x="18.142857"
         style="font-style:normal;font-weight:normal;font-size:10.58333302px;line-height:23.28333282px;font-family:Sans;letter-spacing:0px;word-spacing:0px;fill:#00aad4;fill-opacity:1;stroke:none;stroke-width:0.26458332px;stroke-linecap:butt;stroke-linejoin:miter;stroke-opacity:1"
         xml:space="preserve"><tspan
           style="fill:#00aad4;fill-opacity:1;stroke-width:0.26458332px"
           y="39.636009"
           x="18.142857"
           id="tspan4503-2-4"
           sodipodi:role="line">mutation</tspan></text>
      <text
         id="text4493-0-2-0"
         y="46.965485"
         x="19.68767"
         style="font-style:normal;font-weight:normal;font-size:6.00786066px;font-family:Sans;letter-spacing:0px;word-spacing:0px;fill:#000000;fill-opacity:1;stroke:none;stroke-width:0.15019651px;stroke-linecap:butt;stroke-linejoin:miter;stroke-opacity:1"
         xml:space="preserve"><tspan
           style="font-style:normal;font-variant:normal;font-weight:normal;font-stretch:normal;font-family:monospace;-inkscape-font-specification:monospace;stroke-width:0.15019651px"
           y="46.965485"
           x="19.68767"
           id="tspan4491-9-3-6"
           sodipodi:role="line"><tspan
   id="tspan4497-1-9-0"
   style="font-style:normal;font-variant:normal;font-weight:bold;font-stretch:normal;font-family:monospace;-inkscape-font-specification:'monospace Bold';stroke-width:0.15019651px">defmut </tspan>s=1.0</tspan><tspan
           id="tspan4495-2-6-2"
           style="font-style:normal;font-variant:normal;font-weight:normal;font-stretch:normal;font-family:monospace;-inkscape-font-specification:monospace;stroke-width:0.15019651px"
           y="54.475311"
           x="19.68767"
           sodipodi:role="line">trigger : t1</tspan><tspan
           style="font-style:normal;font-variant:normal;font-weight:normal;font-stretch:normal;font-family:monospace;-inkscape-font-specification:monospace;stroke-width:0.15019651px"
           y="61.985138"
           x="19.68767"
           sodipodi:role="line"
           id="tspan4688">occur   : 1</tspan><tspan
           style="font-style:normal;font-variant:normal;font-weight:normal;font-stretch:normal;font-family:monospace;-inkscape-font-specification:monospace;stroke-width:0.15019651px"
           y="69.494965"
           x="19.68767"
           sodipodi:role="line"
           id="tspan4690">number  : binomf(n,mu)</tspan><tspan
           style="font-style:normal;font-variant:normal;font-weight:normal;font-stretch:normal;font-family:monospace;-inkscape-font-specification:monospace;stroke-width:0.15019651px"
           y="77.004791"
           x="19.68767"
           sodipodi:role="line"
           id="tspan4692">distrib : min(max(gaussf(s,sigma),s_min),s_max)</tspan><tspan
           style="font-style:normal;font-variant:normal;font-weight:normal;font-stretch:normal;font-family:monospace;-inkscape-font-specification:monospace;stroke-width:0.15019651px"
           y="84.51461"
           x="19.68767"
           sodipodi:role="line"
           id="tspan4694">replace : 0</tspan><tspan
           style="font-style:normal;font-variant:normal;font-weight:normal;font-stretch:normal;font-family:monospace;-inkscape-font-specification:monospace;stroke-width:0.15019651px"
           y="92.024437"
           x="19.68767"
           sodipodi:role="line"
           id="tspan4696">concern : n</tspan></text>
    </g>
  </g>
</svg>
